Lecture 8
…
np_robust(bmod, 
          rmod, 
          type="slope", 
          base_args = list(variables="education", 
                  newdata=datagrid(model = bmod, education=0:20, 
                                   grid_type="counterfactual"), 
                  by="education"), 
          robust_args = list(variables="education", 
                  newdata=datagrid(model = rmod, education=0:20, 
                                   grid_type="counterfactual"), 
                  by="education"))
```

```
## # A tibble: 21 × 8
##    term      contrast education estimate std.error conf.low conf.high   robust
##    <chr>     <chr>        <int>    <dbl>     <dbl>    <dbl>     <dbl>    <dbl>
##  1 education dY/dX            0   0.0324   0.00537   0.0448    0.0575 0.0102  
##  2 education dY/dX            1   0.0324   0.00537   0.0448    0.0575 0.0102  
##  3 education dY/dX            2   0.0324   0.00537   0.0448    0.0575 0.0102  
##  4 education dY/dX            3   0.0324   0.00537   0.0448    0.0575 0.0102  
##  5 education dY/dX            4   0.0324   0.00537   0.0448    0.0575 0.0102  
##  6 education dY/dX            5   0.0324   0.00537   0.0448    0.0575 0.0102  
##  7 education dY/dX            6   0.0324   0.00537   0.0448    0.0575 0.0102  
##  8 education dY/dX            7   0.0324   0.00537   0.0448    0.0575 0.0102  
##  9 education dY/dX            8   0.0324   0.00537   0.0448    0.0575 0.0102  
## 10 education dY/dX            9   0.0257   0.00522   0.0448    0.0575 0.000119
## # ℹ 11 more rows
```
…
